#
# There is insufficient memory for the Java Runtime Environment to continue.
# Native memory allocation (mmap) failed to map 3495428096 bytes for committing reserved memory.
# Possible reasons:
#   The system is out of physical RAM or swap space
#   In 32 bit mode, the process size limit was hit
# Possible solutions:
#   Reduce memory load on the system
#   Increase physical memory or swap space
#   Check if swap backing store is full
#   Use 64 bit Java on a 64 bit OS
#   Decrease Java heap size (-Xmx/-Xms)
#   Decrease number of Java threads
#   Decrease Java thread stack sizes (-Xss)
#   Set larger code cache with -XX:ReservedCodeCacheSize=
# This output file may be truncated or incomplete.
#
#  Out of Memory Error (os_linux.cpp:2643), pid=18496, tid=0x00007fc0e98a4700
#
# JRE version:  (8.0_171-b11) (build )
# Java VM: OpenJDK 64-Bit Server VM (25.171-b11 mixed mode linux-amd64 compressed oops)
# Failed to write core dump. Core dumps have been disabled. To enable core dumping, try "ulimit -c unlimited" before starting Java again
#

---------------  T H R E A D  ---------------

Current thread (0x00007fc0e000b800):  JavaThread "Unknown thread" [_thread_in_vm, id=18501, stack(0x00007fc0e97a5000,0x00007fc0e98a5000)]

Stack: [0x00007fc0e97a5000,0x00007fc0e98a5000],  sp=0x00007fc0e98a3590,  free space=1017k
Native frames: (J=compiled Java code, j=interpreted, Vv=VM code, C=native code)
V  [libjvm.so+0xaab382]
V  [libjvm.so+0x4d79a7]
V  [libjvm.so+0x8e66c0]
V  [libjvm.so+0x8e0c1e]
V  [libjvm.so+0x961436]
V  [libjvm.so+0x95176c]
V  [libjvm.so+0x2b2f0e]
V  [libjvm.so+0x90e3c1]
V  [libjvm.so+0xa6d97a]
V  [libjvm.so+0xa6dc65]
V  [libjvm.so+0x623caf]
V  [libjvm.so+0xa513bb]
V  [libjvm.so+0x6a6d01]  JNI_CreateJavaVM+0x61
C  [libjli.so+0x2ce3]
C  [libjli.so+0x777d]
C  [libpthread.so.0+0x75aa]  start_thread+0xda


---------------  P R O C E S S  ---------------

Java Threads: ( => current thread )

Other Threads:

=>0x00007fc0e000b800 (exited) JavaThread "Unknown thread" [_thread_in_vm, id=18501, stack(0x00007fc0e97a5000,0x00007fc0e98a5000)]

VM state:not at safepoint (not fully initialized)

VM Mutex/Monitor currently owned by a thread: None

GC Heap History (0 events):
No events

Deoptimization events (0 events):
No events

Classes redefined (0 events):
No events

Internal exceptions (0 events):
No events

Events (0 events):
No events


Dynamic libraries:
757d80000-7c0000000 rw-p 00000000 00:00 0 
556b24ac2000-556b24ac3000 r-xp 00000000 08:05 5390300                    /usr/lib/jvm/java-8-openjdk-amd64/jre/bin/java
556b24cc2000-556b24cc3000 r--p 00000000 08:05 5390300                    /usr/lib/jvm/java-8-openjdk-amd64/jre/bin/java
556b24cc3000-556b24cc4000 rw-p 00001000 08:05 5390300                    /usr/lib/jvm/java-8-openjdk-amd64/jre/bin/java
556b268f5000-556b26916000 rw-p 00000000 00:00 0                          [heap]
7fc0d1000000-7fc0d1270000 rwxp 00000000 00:00 0 
7fc0d1270000-7fc0e0000000 ---p 00000000 00:00 0 
7fc0e0000000-7fc0e0033000 rw-p 00000000 00:00 0 
7fc0e0033000-7fc0e4000000 ---p 00000000 00:00 0 
7fc0e53da000-7fc0e5a5c000 ---p 00000000 00:00 0 
7fc0e5a5c000-7fc0e5da9000 rw-p 00000000 00:00 0 
7fc0e5da9000-7fc0e615f000 ---p 00000000 00:00 0 
7fc0e615f000-7fc0e6167000 r-xp 00000000 08:05 5390346                    /usr/lib/jvm/java-8-openjdk-amd64/jre/lib/amd64/libzip.so
7fc0e6167000-7fc0e6366000 ---p 00008000 08:05 5390346                    /usr/lib/jvm/java-8-openjdk-amd64/jre/lib/amd64/libzip.so
7fc0e6366000-7fc0e6367000 r--p 00007000 08:05 5390346                    /usr/lib/jvm/java-8-openjdk-amd64/jre/lib/amd64/libzip.so
7fc0e6367000-7fc0e6368000 rw-p 00008000 08:05 5390346                    /usr/lib/jvm/java-8-openjdk-amd64/jre/lib/amd64/libzip.so
7fc0e6368000-7fc0e6373000 r-xp 00000000 08:05 918304                     /lib/x86_64-linux-gnu/libnss_files-2.27.so
7fc0e6373000-7fc0e6572000 ---p 0000b000 08:05 918304                     /lib/x86_64-linux-gnu/libnss_files-2.27.so
7fc0e6572000-7fc0e6573000 r--p 0000a000 08:05 918304                     /lib/x86_64-linux-gnu/libnss_files-2.27.so
7fc0e6573000-7fc0e6574000 rw-p 0000b000 08:05 918304                     /lib/x86_64-linux-gnu/libnss_files-2.27.so
7fc0e6574000-7fc0e657a000 rw-p 00000000 00:00 0 
7fc0e657a000-7fc0e658f000 r-xp 00000000 08:05 918298                     /lib/x86_64-linux-gnu/libnsl-2.27.so
7fc0e658f000-7fc0e678e000 ---p 00015000 08:05 918298                     /lib/x86_64-linux-gnu/libnsl-2.27.so
7fc0e678e000-7fc0e678f000 r--p 00014000 08:05 918298                     /lib/x86_64-linux-gnu/libnsl-2.27.so
7fc0e678f000-7fc0e6790000 rw-p 00015000 08:05 918298                     /lib/x86_64-linux-gnu/libnsl-2.27.so
7fc0e6790000-7fc0e6792000 rw-p 00000000 00:00 0 
7fc0e6792000-7fc0e679d000 r-xp 00000000 08:05 918308                     /lib/x86_64-linux-gnu/libnss_nis-2.27.so
7fc0e679d000-7fc0e699c000 ---p 0000b000 08:05 918308                     /lib/x86_64-linux-gnu/libnss_nis-2.27.so
7fc0e699c000-7fc0e699d000 r--p 0000a000 08:05 918308                     /lib/x86_64-linux-gnu/libnss_nis-2.27.so
7fc0e699d000-7fc0e699e000 rw-p 0000b000 08:05 918308                     /lib/x86_64-linux-gnu/libnss_nis-2.27.so
7fc0e699e000-7fc0e69a5000 r-xp 00000000 08:05 918300                     /lib/x86_64-linux-gnu/libnss_compat-2.27.so
7fc0e69a5000-7fc0e6ba4000 ---p 00007000 08:05 918300                     /lib/x86_64-linux-gnu/libnss_compat-2.27.so
7fc0e6ba4000-7fc0e6ba5000 r--p 00006000 08:05 918300                     /lib/x86_64-linux-gnu/libnss_compat-2.27.so
7fc0e6ba5000-7fc0e6ba6000 rw-p 00007000 08:05 918300                     /lib/x86_64-linux-gnu/libnss_compat-2.27.so
7fc0e6ba6000-7fc0e6bd4000 r-xp 00000000 08:05 5390327                    /usr/lib/jvm/java-8-openjdk-amd64/jre/lib/amd64/libjava.so
7fc0e6bd4000-7fc0e6dd3000 ---p 0002e000 08:05 5390327                    /usr/lib/jvm/java-8-openjdk-amd64/jre/lib/amd64/libjava.so
7fc0e6dd3000-7fc0e6dd4000 r--p 0002d000 08:05 5390327                    /usr/lib/jvm/java-8-openjdk-amd64/jre/lib/amd64/libjava.so
7fc0e6dd4000-7fc0e6dd6000 rw-p 0002e000 08:05 5390327                    /usr/lib/jvm/java-8-openjdk-amd64/jre/lib/amd64/libjava.so
7fc0e6dd6000-7fc0e6de6000 r-xp 00000000 08:05 5390345                    /usr/lib/jvm/java-8-openjdk-amd64/jre/lib/amd64/libverify.so
7fc0e6de6000-7fc0e6fe5000 ---p 00010000 08:05 5390345                    /usr/lib/jvm/java-8-openjdk-amd64/jre/lib/amd64/libverify.so
7fc0e6fe5000-7fc0e6fe7000 r--p 0000f000 08:05 5390345                    /usr/lib/jvm/java-8-openjdk-amd64/jre/lib/amd64/libverify.so
7fc0e6fe7000-7fc0e6fe8000 rw-p 00011000 08:05 5390345                    /usr/lib/jvm/java-8-openjdk-amd64/jre/lib/amd64/libverify.so
7fc0e6fe8000-7fc0e6fef000 r-xp 00000000 08:05 918353                     /lib/x86_64-linux-gnu/librt-2.27.so
7fc0e6fef000-7fc0e71ee000 ---p 00007000 08:05 918353                     /lib/x86_64-linux-gnu/librt-2.27.so
7fc0e71ee000-7fc0e71ef000 r--p 00006000 08:05 918353                     /lib/x86_64-linux-gnu/librt-2.27.so
7fc0e71ef000-7fc0e71f0000 rw-p 00007000 08:05 918353                     /lib/x86_64-linux-gnu/librt-2.27.so
7fc0e71f0000-7fc0e7207000 r-xp 00000000 08:05 918251                     /lib/x86_64-linux-gnu/libgcc_s.so.1
7fc0e7207000-7fc0e7406000 ---p 00017000 08:05 918251                     /lib/x86_64-linux-gnu/libgcc_s.so.1
7fc0e7406000-7fc0e7407000 r--p 00016000 08:05 918251                     /lib/x86_64-linux-gnu/libgcc_s.so.1
7fc0e7407000-7fc0e7408000 rw-p 00017000 08:05 918251                     /lib/x86_64-linux-gnu/libgcc_s.so.1
7fc0e7408000-7fc0e759a000 r-xp 00000000 08:05 918281                     /lib/x86_64-linux-gnu/libm-2.27.so
7fc0e759a000-7fc0e7799000 ---p 00192000 08:05 918281                     /lib/x86_64-linux-gnu/libm-2.27.so
7fc0e7799000-7fc0e779a000 r--p 00191000 08:05 918281                     /lib/x86_64-linux-gnu/libm-2.27.so
7fc0e779a000-7fc0e779b000 rw-p 00192000 08:05 918281                     /lib/x86_64-linux-gnu/libm-2.27.so
7fc0e779b000-7fc0e790d000 r-xp 00000000 08:05 5508656                    /usr/lib/x86_64-linux-gnu/libstdc++.so.6.0.25
7fc0e790d000-7fc0e7b0d000 ---p 00172000 08:05 5508656                    /usr/lib/x86_64-linux-gnu/libstdc++.so.6.0.25
7fc0e7b0d000-7fc0e7b17000 r--p 00172000 08:05 5508656                    /usr/lib/x86_64-linux-gnu/libstdc++.so.6.0.25
7fc0e7b17000-7fc0e7b19000 rw-p 0017c000 08:05 5508656                    /usr/lib/x86_64-linux-gnu/libstdc++.so.6.0.25
7fc0e7b19000-7fc0e7b1c000 rw-p 00000000 00:00 0 
7fc0e7b1c000-7fc0e87ad000 r-xp 00000000 08:05 5390349                    /usr/lib/jvm/java-8-openjdk-amd64/jre/lib/amd64/server/libjvm.so
7fc0e87ad000-7fc0e89ad000 ---p 00c91000 08:05 5390349                    /usr/lib/jvm/java-8-openjdk-amd64/jre/lib/amd64/server/libjvm.so
7fc0e89ad000-7fc0e8a40000 r--p 00c91000 08:05 5390349                    /usr/lib/jvm/java-8-openjdk-amd64/jre/lib/amd64/server/libjvm.so
7fc0e8a40000-7fc0e8a68000 rw-p 00d24000 08:05 5390349                    /usr/lib/jvm/java-8-openjdk-amd64/jre/lib/amd64/server/libjvm.so
7fc0e8a68000-7fc0e8a99000 rw-p 00000000 00:00 0 
7fc0e8a99000-7fc0e8c4a000 r-xp 00000000 08:05 918212                     /lib/x86_64-linux-gnu/libc-2.27.so
7fc0e8c4a000-7fc0e8e49000 ---p 001b1000 08:05 918212                     /lib/x86_64-linux-gnu/libc-2.27.so
7fc0e8e49000-7fc0e8e4d000 r--p 001b0000 08:05 918212                     /lib/x86_64-linux-gnu/libc-2.27.so
7fc0e8e4d000-7fc0e8e4f000 rw-p 001b4000 08:05 918212                     /lib/x86_64-linux-gnu/libc-2.27.so
7fc0e8e4f000-7fc0e8e53000 rw-p 00000000 00:00 0 
7fc0e8e53000-7fc0e8e56000 r-xp 00000000 08:05 918237                     /lib/x86_64-linux-gnu/libdl-2.27.so
7fc0e8e56000-7fc0e9055000 ---p 00003000 08:05 918237                     /lib/x86_64-linux-gnu/libdl-2.27.so
7fc0e9055000-7fc0e9056000 r--p 00002000 08:05 918237                     /lib/x86_64-linux-gnu/libdl-2.27.so
7fc0e9056000-7fc0e9057000 rw-p 00003000 08:05 918237                     /lib/x86_64-linux-gnu/libdl-2.27.so
7fc0e9057000-7fc0e9065000 r-xp 00000000 08:05 5390313                    /usr/lib/jvm/java-8-openjdk-amd64/jre/lib/amd64/jli/libjli.so
7fc0e9065000-7fc0e9264000 ---p 0000e000 08:05 5390313                    /usr/lib/jvm/java-8-openjdk-amd64/jre/lib/amd64/jli/libjli.so
7fc0e9264000-7fc0e9265000 r--p 0000d000 08:05 5390313                    /usr/lib/jvm/java-8-openjdk-amd64/jre/lib/amd64/jli/libjli.so
7fc0e9265000-7fc0e9266000 rw-p 0000e000 08:05 5390313                    /usr/lib/jvm/java-8-openjdk-amd64/jre/lib/amd64/jli/libjli.so
7fc0e9266000-7fc0e9282000 r-xp 00000000 08:05 918384                     /lib/x86_64-linux-gnu/libz.so.1.2.11
7fc0e9282000-7fc0e9482000 ---p 0001c000 08:05 918384                     /lib/x86_64-linux-gnu/libz.so.1.2.11
7fc0e9482000-7fc0e9483000 r--p 0001c000 08:05 918384                     /lib/x86_64-linux-gnu/libz.so.1.2.11
7fc0e9483000-7fc0e9484000 rw-p 0001d000 08:05 918384                     /lib/x86_64-linux-gnu/libz.so.1.2.11
7fc0e9484000-7fc0e949d000 r-xp 00000000 08:05 918343                     /lib/x86_64-linux-gnu/libpthread-2.27.so
7fc0e949d000-7fc0e969c000 ---p 00019000 08:05 918343                     /lib/x86_64-linux-gnu/libpthread-2.27.so
7fc0e969c000-7fc0e969d000 r--p 00018000 08:05 918343                     /lib/x86_64-linux-gnu/libpthread-2.27.so
7fc0e969d000-7fc0e969e000 rw-p 00019000 08:05 918343                     /lib/x86_64-linux-gnu/libpthread-2.27.so
7fc0e969e000-7fc0e96a2000 rw-p 00000000 00:00 0 
7fc0e96a2000-7fc0e96c7000 r-xp 00000000 08:05 918184                     /lib/x86_64-linux-gnu/ld-2.27.so
7fc0e97a4000-7fc0e97a5000 ---p 00000000 00:00 0 
7fc0e97a5000-7fc0e97a8000 ---p 00000000 00:00 0 
7fc0e97a8000-7fc0e98a7000 rw-p 00000000 00:00 0 
7fc0e98ba000-7fc0e98c2000 rw-s 00000000 08:05 5115514                    /tmp/hsperfdata_rodrigo/18496
7fc0e98c2000-7fc0e98c3000 rw-p 00000000 00:00 0 
7fc0e98c3000-7fc0e98c4000 r--p 00000000 00:00 0 
7fc0e98c4000-7fc0e98c6000 rw-p 00000000 00:00 0 
7fc0e98c6000-7fc0e98c7000 r--p 00024000 08:05 918184                     /lib/x86_64-linux-gnu/ld-2.27.so
7fc0e98c7000-7fc0e98c8000 rw-p 00025000 08:05 918184                     /lib/x86_64-linux-gnu/ld-2.27.so
7fc0e98c8000-7fc0e98c9000 rw-p 00000000 00:00 0 
7ffd7a95d000-7ffd7a97e000 rw-p 00000000 00:00 0                          [stack]
7ffd7a9f3000-7ffd7a9f6000 r--p 00000000 00:00 0                          [vvar]
7ffd7a9f6000-7ffd7a9f8000 r-xp 00000000 00:00 0                          [vdso]
ffffffffff600000-ffffffffff601000 r-xp 00000000 00:00 0                  [vsyscall]

VM Arguments:
jvm_args: -Dfile.encoding=UTF-8 -Xms5000m -Dawt.useSystemAAFontSettings=gasp 
java_command: reconstrucao.ReconstrucaoServerPublisher
java_class_path (initial): /home/rodrigo/MEGA/Documentos/Rodrigo/7º Período/Desenvolvimento Integrado de Sistemas/csm30/jblas-1.2.4.jar:/home/rodrigo/MEGA/Documentos/Rodrigo/7º Período/Desenvolvimento Integrado de Sistemas/csm30/postgresql-42.2.5.jar:/home/rodrigo/MEGA/Documentos/Rodrigo/7º Período/Desenvolvimento Integrado de Sistemas/csm30/ReconstrucaoImagemServer/build/classes
Launcher Type: SUN_STANDARD

Environment Variables:
_JAVA_OPTIONS=  -Dawt.useSystemAAFontSettings=gasp
PATH=/home/rodrigo/.local/bin:/usr/local/bin:/usr/bin:/bin:/usr/local/games:/usr/games:/sbin:/usr/sbin
LD_LIBRARY_PATH=/usr/lib/jvm/java-8-openjdk-amd64/jre/lib/amd64:/usr/lib/jvm/java-8-openjdk-amd64/jre/lib/i386:
SHELL=/bin/bash
DISPLAY=:0

Signal Handlers:
SIGSEGV: [libjvm.so+0xaabcd0], sa_mask[0]=11111111011111111101111111111110, sa_flags=SA_RESTART|SA_SIGINFO
SIGBUS: [libjvm.so+0xaabcd0], sa_mask[0]=11111111011111111101111111111110, sa_flags=SA_RESTART|SA_SIGINFO
SIGFPE: [libjvm.so+0x8e1d50], sa_mask[0]=11111111011111111101111111111110, sa_flags=SA_RESTART|SA_SIGINFO
SIGPIPE: [libjvm.so+0x8e1d50], sa_mask[0]=11111111011111111101111111111110, sa_flags=SA_RESTART|SA_SIGINFO
SIGXFSZ: [libjvm.so+0x8e1d50], sa_mask[0]=11111111011111111101111111111110, sa_flags=SA_RESTART|SA_SIGINFO
SIGILL: [libjvm.so+0x8e1d50], sa_mask[0]=11111111011111111101111111111110, sa_flags=SA_RESTART|SA_SIGINFO
SIGUSR1: SIG_DFL, sa_mask[0]=00000000000000000000000000000000, sa_flags=none
SIGUSR2: [libjvm.so+0x8e1c00], sa_mask[0]=00100000000000000000000000000000, sa_flags=SA_RESTART|SA_SIGINFO
SIGHUP: SIG_IGN, sa_mask[0]=00000000000000000000000000000000, sa_flags=none
SIGINT: SIG_IGN, sa_mask[0]=00000000000000000000000000000000, sa_flags=none
SIGTERM: SIG_DFL, sa_mask[0]=00000000000000000000000000000000, sa_flags=none
SIGQUIT: SIG_DFL, sa_mask[0]=00000000000000000000000000000000, sa_flags=none


---------------  S Y S T E M  ---------------

OS:DISTRIB_ID=Deepin
DISTRIB_RELEASE="15.10.1"
DISTRIB_DESCRIPTION="Deepin 15.10.1 "
DISTRIB_CODENAME=stable

uname:Linux 4.15.0-29deepin-generic #31 SMP Fri Jul 27 07:12:08 UTC 2018 x86_64
libc:glibc 2.27 NPTL 2.27 
rlimit: STACK 8192k, CORE 0k, NPROC 30887, NOFILE 1048576, AS infinity
load average:0.45 0.75 0.71

/proc/meminfo:
MemTotal:        8068648 kB
MemFree:          159068 kB
MemAvailable:     355108 kB
Buffers:           16932 kB
Cached:           745576 kB
SwapCached:       280384 kB
Active:          6214960 kB
Inactive:        1378920 kB
Active(anon):    5941484 kB
Inactive(anon):  1275236 kB
Active(file):     273476 kB
Inactive(file):   103684 kB
Unevictable:          64 kB
Mlocked:              64 kB
SwapTotal:       4194300 kB
SwapFree:        2248444 kB
Dirty:               152 kB
Writeback:             0 kB
AnonPages:       6783584 kB
Mapped:           410868 kB
Shmem:            390064 kB
Slab:             176104 kB
SReclaimable:      76296 kB
SUnreclaim:        99808 kB
KernelStack:       15592 kB
PageTables:        66648 kB
NFS_Unstable:          0 kB
Bounce:                0 kB
WritebackTmp:          0 kB
CommitLimit:     8228624 kB
Committed_AS:   17663700 kB
VmallocTotal:   34359738367 kB
VmallocUsed:           0 kB
VmallocChunk:          0 kB
HardwareCorrupted:     0 kB
AnonHugePages:         0 kB
ShmemHugePages:        0 kB
ShmemPmdMapped:        0 kB
CmaTotal:              0 kB
CmaFree:               0 kB
HugePages_Total:       0
HugePages_Free:        0
HugePages_Rsvd:        0
HugePages_Surp:        0
Hugepagesize:       2048 kB
DirectMap4k:      238412 kB
DirectMap2M:     8050688 kB
DirectMap1G:     1048576 kB


CPU:total 4 (initial active 4) (2 cores per cpu, 2 threads per core) family 6 model 94 stepping 3, cmov, cx8, fxsr, mmx, sse, sse2, sse3, ssse3, sse4.1, sse4.2, popcnt, avx, avx2, aes, clmul, erms, 3dnowpref, lzcnt, ht, tsc, tscinvbit, bmi1, bmi2, adx

/proc/cpuinfo:
processor	: 0
vendor_id	: GenuineIntel
cpu family	: 6
model		: 94
model name	: Intel(R) Core(TM) i3-6100T CPU @ 3.20GHz
stepping	: 3
microcode	: 0xc2
cpu MHz		: 3200.005
cache size	: 3072 KB
physical id	: 0
siblings	: 4
core id		: 0
cpu cores	: 2
apicid		: 0
initial apicid	: 0
fpu		: yes
fpu_exception	: yes
cpuid level	: 22
wp		: yes
flags		: fpu vme de pse tsc msr pae mce cx8 apic sep mtrr pge mca cmov pat pse36 clflush dts acpi mmx fxsr sse sse2 ss ht tm pbe syscall nx pdpe1gb rdtscp lm constant_tsc art arch_perfmon pebs bts rep_good nopl xtopology nonstop_tsc cpuid aperfmperf tsc_known_freq pni pclmulqdq dtes64 monitor ds_cpl vmx est tm2 ssse3 sdbg fma cx16 xtpr pdcm pcid sse4_1 sse4_2 x2apic movbe popcnt tsc_deadline_timer aes xsave avx f16c rdrand lahf_lm abm 3dnowprefetch cpuid_fault epb invpcid_single pti ibrs ibpb stibp tpr_shadow vnmi flexpriority ept vpid fsgsbase tsc_adjust bmi1 avx2 smep bmi2 erms invpcid mpx rdseed adx smap clflushopt intel_pt xsaveopt xsavec xgetbv1 xsaves dtherm ida arat pln pts hwp hwp_notify hwp_act_window hwp_epp
bugs		: cpu_meltdown spectre_v1 spectre_v2 spec_store_bypass
bogomips	: 6384.00
clflush size	: 64
cache_alignment	: 64
address sizes	: 39 bits physical, 48 bits virtual
power management:

processor	: 1
vendor_id	: GenuineIntel
cpu family	: 6
model		: 94
model name	: Intel(R) Core(TM) i3-6100T CPU @ 3.20GHz
stepping	: 3
microcode	: 0xc2
cpu MHz		: 3200.011
cache size	: 3072 KB
physical id	: 0
siblings	: 4
core id		: 1
cpu cores	: 2
apicid		: 2
initial apicid	: 2
fpu		: yes
fpu_exception	: yes
cpuid level	: 22
wp		: yes
flags		: fpu vme de pse tsc msr pae mce cx8 apic sep mtrr pge mca cmov pat pse36 clflush dts acpi mmx fxsr sse sse2 ss ht tm pbe syscall nx pdpe1gb rdtscp lm constant_tsc art arch_perfmon pebs bts rep_good nopl xtopology nonstop_tsc cpuid aperfmperf tsc_known_freq pni pclmulqdq dtes64 monitor ds_cpl vmx est tm2 ssse3 sdbg fma cx16 xtpr pdcm pcid sse4_1 sse4_2 x2apic movbe popcnt tsc_deadline_timer aes xsave avx f16c rdrand lahf_lm abm 3dnowprefetch cpuid_fault epb invpcid_single pti ibrs ibpb stibp tpr_shadow vnmi flexpriority ept vpid fsgsbase tsc_adjust bmi1 avx2 smep bmi2 erms invpcid mpx rdseed adx smap clflushopt intel_pt xsaveopt xsavec xgetbv1 xsaves dtherm ida arat pln pts hwp hwp_notify hwp_act_window hwp_epp
bugs		: cpu_meltdown spectre_v1 spectre_v2 spec_store_bypass
bogomips	: 6384.00
clflush size	: 64
cache_alignment	: 64
address sizes	: 39 bits physical, 48 bits virtual
power management:

processor	: 2
vendor_id	: GenuineIntel
cpu family	: 6
model		: 94
model name	: Intel(R) Core(TM) i3-6100T CPU @ 3.20GHz
stepping	: 3
microcode	: 0xc2
cpu MHz		: 3200.002
cache size	: 3072 KB
physical id	: 0
siblings	: 4
core id		: 0
cpu cores	: 2
apicid		: 1
initial apicid	: 1
fpu		: yes
fpu_exception	: yes
cpuid level	: 22
wp		: yes
flags		: fpu vme de pse tsc msr pae mce cx8 apic sep mtrr pge mca cmov pat pse36 clflush dts acpi mmx fxsr sse sse2 ss ht tm pbe syscall nx pdpe1gb rdtscp lm constant_tsc art arch_perfmon pebs bts rep_good nopl xtopology nonstop_tsc cpuid aperfmperf tsc_known_freq pni pclmulqdq dtes64 monitor ds_cpl vmx est tm2 ssse3 sdbg fma cx16 xtpr pdcm pcid sse4_1 sse4_2 x2apic movbe popcnt tsc_deadline_timer aes xsave avx f16c rdrand lahf_lm abm 3dnowprefetch cpuid_fault epb invpcid_single pti ibrs ibpb stibp tpr_shadow vnmi flexpriority ept vpid fsgsbase tsc_adjust bmi1 avx2 smep bmi2 erms invpcid mpx rdseed adx smap clflushopt intel_pt xsaveopt xsavec xgetbv1 xsaves dtherm ida arat pln pts hwp hwp_notify hwp_act_window hwp_epp
bugs		: cpu_meltdown spectre_v1 spectre_v2 spec_store_bypass
bogomips	: 6384.00
clflush size	: 64
cache_alignment	: 64
address sizes	: 39 bits physical, 48 bits virtual
power management:

processor	: 3
vendor_id	: GenuineIntel
cpu family	: 6
model		: 94
model name	: Intel(R) Core(TM) i3-6100T CPU @ 3.20GHz
stepping	: 3
microcode	: 0xc2
cpu MHz		: 3199.994
cache size	: 3072 KB
physical id	: 0
siblings	: 4
core id		: 1
cpu cores	: 2
apicid		: 3
initial apicid	: 3
fpu		: yes
fpu_exception	: yes
cpuid level	: 22
wp		: yes
flags		: fpu vme de pse tsc msr pae mce cx8 apic sep mtrr pge mca cmov pat pse36 clflush dts acpi mmx fxsr sse sse2 ss ht tm pbe syscall nx pdpe1gb rdtscp lm constant_tsc art arch_perfmon pebs bts rep_good nopl xtopology nonstop_tsc cpuid aperfmperf tsc_known_freq pni pclmulqdq dtes64 monitor ds_cpl vmx est tm2 ssse3 sdbg fma cx16 xtpr pdcm pcid sse4_1 sse4_2 x2apic movbe popcnt tsc_deadline_timer aes xsave avx f16c rdrand lahf_lm abm 3dnowprefetch cpuid_fault epb invpcid_single pti ibrs ibpb stibp tpr_shadow vnmi flexpriority ept vpid fsgsbase tsc_adjust bmi1 avx2 smep bmi2 erms invpcid mpx rdseed adx smap clflushopt intel_pt xsaveopt xsavec xgetbv1 xsaves dtherm ida arat pln pts hwp hwp_notify hwp_act_window hwp_epp
bugs		: cpu_meltdown spectre_v1 spectre_v2 spec_store_bypass
bogomips	: 6384.00
clflush size	: 64
cache_alignment	: 64
address sizes	: 39 bits physical, 48 bits virtual
power management:



Memory: 4k page, physical 8068648k(157840k free), swap 4194300k(2248444k free)

vm_info: OpenJDK 64-Bit Server VM (25.171-b11) for linux-amd64 JRE (1.8.0_171-8u171-b11-2-b11), built on May 17 2018 20:17:27 by "buildd" with gcc 7.3.0

time: Thu Jun 27 16:06:18 2019
elapsed time: 0 seconds (0d 0h 0m 0s)

